Warning: Permanently added '10.128.0.15' (ECDSA) to the list of known hosts.
Warning: Permanently added '10.128.0.17' (ECDSA) to the list of known hosts.
Warning: Permanently added '10.128.0.16' (ECDSA) to the list of known hosts.
